<svg width="10" height="6" viewBox="0 0 10 6" fill="none" xmlns="http://www.w3.org/2000/svg">
<path d="M1 1L5 5L9 1" stroke="#1C2B39" stroke-width="1.5" stroke-linecap="round" stroke-linejoin="round"/>
</svg>
