<svg width="32" height="32" viewBox="0 0 32 32" fill="none" xmlns="http://www.w3.org/2000/svg">
<circle cx="16" cy="16" r="7.25" stroke="#E72D2B" stroke-width="1.5"/>
<path d="M14.6465 19.3086C14.6465 19.2109 14.6699 19.0566 14.7168 18.8457C14.7441 18.7246 14.7852 18.5645 14.8398 18.3652L15.5605 15.6699C15.5684 15.6387 15.5742 15.6074 15.5781 15.5762C15.5859 15.5449 15.5898 15.5156 15.5898 15.4883C15.5898 15.3281 15.5391 15.2285 15.4375 15.1895C15.3359 15.1504 15.1504 15.125 14.8809 15.1133V14.7969C15.1074 14.7812 15.4355 14.75 15.8652 14.7031C16.2988 14.6523 16.6055 14.6094 16.7852 14.5742L17.3008 14.4746L16.3691 17.8906C16.291 18.1836 16.2383 18.3867 16.2109 18.5C16.1406 18.7891 16.1055 18.9766 16.1055 19.0625C16.1055 19.1484 16.125 19.2051 16.1641 19.2324C16.2031 19.2559 16.2461 19.2676 16.293 19.2676C16.4141 19.2676 16.5645 19.1641 16.7441 18.957C16.9238 18.75 17.082 18.5332 17.2188 18.3066L17.4824 18.4766C17.0918 19.0508 16.793 19.4375 16.5859 19.6367C16.2461 19.9648 15.8828 20.1289 15.4961 20.1289C15.2773 20.1289 15.0801 20.0625 14.9043 19.9297C14.7324 19.793 14.6465 19.5859 14.6465 19.3086ZM16.9668 11.7969C17.1895 11.7969 17.3789 11.875 17.5352 12.0312C17.6914 12.1875 17.7695 12.377 17.7695 12.5996C17.7695 12.8223 17.6914 13.0137 17.5352 13.1738C17.3789 13.3301 17.1895 13.4082 16.9668 13.4082C16.7441 13.4082 16.5527 13.3301 16.3926 13.1738C16.2363 13.0137 16.1582 12.8223 16.1582 12.5996C16.1582 12.377 16.2363 12.1875 16.3926 12.0312C16.5527 11.875 16.7441 11.7969 16.9668 11.7969Z" fill="#E72D2B"/>
</svg>
