<svg width="18" height="18" viewBox="0 0 18 18" fill="none" xmlns="http://www.w3.org/2000/svg">
<path fill-rule="evenodd" clip-rule="evenodd" d="M9 0C13.9706 0 18 4.02944 18 9C18 13.9706 13.9706 18 9 18C4.02944 18 0 13.9706 0 9C0 4.02944 4.02944 0 9 0ZM9.75 16.2864C10.2127 16.0317 10.7304 15.5244 11.2243 14.6355C11.899 13.4211 12.382 11.7147 12.4812 9.75H9.75V16.2864ZM8.25 16.2864C7.78735 16.0317 7.26956 15.5244 6.7757 14.6355C6.10102 13.4211 5.618 11.7147 5.51882 9.75H8.25V16.2864ZM9.75 8.25H12.4812C12.382 6.28534 11.899 4.57893 11.2243 3.3645C10.7304 2.47556 10.2127 1.96826 9.75 1.71356V8.25ZM8.25 1.71356V8.25H5.51882C5.618 6.28534 6.10102 4.57893 6.7757 3.3645C7.26956 2.47556 7.78735 1.96826 8.25 1.71356ZM12.3225 15.7258C13.2545 14.233 13.8742 12.1219 13.9829 9.75H16.463C16.2021 12.3773 14.5854 14.6058 12.3225 15.7258ZM13.9829 8.25H16.463C16.2021 5.62268 14.5854 3.39421 12.3225 2.2742C13.2545 3.76704 13.8742 5.87812 13.9829 8.25ZM5.67755 2.2742C4.7455 3.76704 4.12582 5.87812 4.01711 8.25H1.53703C1.79789 5.62268 3.41459 3.39421 5.67755 2.2742ZM5.67755 15.7258C3.41459 14.6058 1.79789 12.3773 1.53703 9.75H4.01711C4.12582 12.1219 4.7455 14.233 5.67755 15.7258Z" fill="#1C2B39"/>
</svg>
